Mon	
08:30	Network	Lipin
10:10	DB	Ibatullin
11:50-13:20	PE	Unicks
14:00	Python	Abramskiy
15:40	Python	Abramskiy
17:10-18:50	R&R	Bazhanov
Tue	
08:30	Network	Lipin
10:10	DB	Ibatullin
11:50-13:20	PE	Unicks
14:00	Python	Abramskiy
15:40	Python	Abramskiy
17:10-18:50	R&R	Bazhanov
Wed	
08:30	Network	Lipin
10:10	DB	Ibatullin
11:50-13:20	PE	Unicks
14:00	Python	Abramskiy
15:40	Python	Abramskiy
17:10-18:50	R&R	Bazhanov
Thu	
08:30	Network	Lipin
10:10	DB	Ibatullin
11:50-13:20	PE	Unicks
14:00	Python	Abramskiy
15:40	Python	Abramskiy
17:10-18:50	R&R	Bazhanov
Fri	
08:30	Network	Lipin
10:10	DB	Ibatullin
11:50-13:20	PE	Unicks
14:00	Python	Abramskiy
15:40	Python	Abramskiy
17:10-18:50	R&R	Bazhanov
Sat	
08:30	Network	Lipin
10:10	DB	Ibatullin
11:50-13:20	PE	Unicks
14:00	Python	Abramskiy
15:40	Python	Abramskiy
17:10-18:50	R&R	Bazhanov